EESchema Schematic File Version 2
LIBS:mike7b4
LIBS:power
LIBS:device
LIBS:transistors
LIBS:conn
LIBS:linear
LIBS:regul
LIBS:74xx
LIBS:cmos4000
LIBS:adc-dac
LIBS:memory
LIBS:xilinx
LIBS:microcontrollers
LIBS:dsp
LIBS:microchip
LIBS:analog_switches
LIBS:motorola
LIBS:texas
LIBS:intel
LIBS:audio
LIBS:interface
LIBS:digital-audio
LIBS:philips
LIBS:display
LIBS:cypress
LIBS:siliconi
LIBS:opto
LIBS:atmel
LIBS:contrib
LIBS:valves
LIBS:stm32
LIBS:testcad-cache
EELAYER 25 0
EELAYER END
$Descr A4 11693 8268
encoding utf-8
Sheet 1 1
Title ""
Date ""
Rev ""
Comp ""
Comment1 ""
Comment2 ""
Comment3 ""
Comment4 ""
$EndDescr
Entry Wire Line
	3250 4550 3350 4650
$Comp
L STM32F042K6Tx U2
U 1 1 572D0B1F
P 4400 5350
F 0 "U2" H 1300 6475 50  0000 L BNN
F 1 "STM32F042K6Tx" H 7500 6475 50  0000 R BNN
F 2 "Housings_QFP:LQFP-32_7x7mm_Pitch0.8mm" H 7500 6425 50  0000 R TNN
F 3 "" H 4400 5350 50  0000 C CNN
	1    4400 5350
	-1   0    0    1   
$EndComp
$Comp
L GND #PWR4
U 1 1 572F1571
P 3000 1750
F 0 "#PWR4" H 3000 1500 50  0001 C CNN
F 1 "GND" H 3000 1600 50  0000 C CNN
F 2 "" H 3000 1750 50  0000 C CNN
F 3 "" H 3000 1750 50  0000 C CNN
	1    3000 1750
	1    0    0    -1  
$EndComp
$Comp
L +3V3 #PWR5
U 1 1 572F1C5D
P 3550 1050
F 0 "#PWR5" H 3550 900 50  0001 C CNN
F 1 "+3V3" H 3550 1190 50  0000 C CNN
F 2 "" H 3550 1050 50  0000 C CNN
F 3 "" H 3550 1050 50  0000 C CNN
	1    3550 1050
	1    0    0    -1  
$EndComp
$Comp
L C C1
U 1 1 572F66C1
P 3550 1350
F 0 "C1" H 3665 1350 50  0000 L CNN
F 1 "C" H 3665 1305 50  0001 L CNN
F 2 "Capacitors_SMD:C_0603_HandSoldering" H 3588 1200 50  0001 C CNN
F 3 "" H 3550 1350 50  0000 C CNN
	1    3550 1350
	1    0    0    -1  
$EndComp
$Comp
L USB_OTG P1
U 1 1 572F6890
P 1850 1450
F 0 "P1" V 1880 1638 50  0000 L CNN
F 1 "USB_OTG" V 1971 1638 50  0000 L CNN
F 2 "Connect:USB_Micro-B" V 1800 1350 50  0001 C CNN
F 3 "" V 1800 1350 50  0000 C CNN
	1    1850 1450
	0    1    1    0   
$EndComp
$Comp
L AP131-33 U3
U 1 1 572F7C0D
P 3000 1200
F 0 "U3" H 3000 1567 50  0000 C CNN
F 1 "AP131-33" H 3000 1476 50  0000 C CNN
F 2 "TO_SOT_Packages_SMD:SOT-23-5" H 3000 800 50  0001 C CNN
F 3 "" H 3000 1200 50  0000 C CNN
	1    3000 1200
	1    0    0    -1  
$EndComp
$Comp
L C C2
U 1 1 572F818C
P 2500 1450
F 0 "C2" H 2615 1450 50  0000 L CNN
F 1 "C" H 2615 1405 50  0001 L CNN
F 2 "Capacitors_SMD:C_0603_HandSoldering" H 2538 1300 50  0001 C CNN
F 3 "" H 2500 1450 50  0000 C CNN
	1    2500 1450
	1    0    0    -1  
$EndComp
$Comp
L C C3
U 1 1 572F83F2
P 3350 1500
F 0 "C3" H 3465 1500 50  0000 L CNN
F 1 "C" H 3465 1455 50  0001 L CNN
F 2 "Capacitors_SMD:C_0603_HandSoldering" H 3388 1350 50  0001 C CNN
F 3 "" H 3350 1500 50  0000 C CNN
	1    3350 1500
	1    0    0    -1  
$EndComp
$Comp
L GND #PWR8
U 1 1 572F1C6E
P 4450 3950
F 0 "#PWR8" H 4450 3700 50  0001 C CNN
F 1 "GND" H 4450 3800 50  0000 C CNN
F 2 "" H 4450 3950 50  0000 C CNN
F 3 "" H 4450 3950 50  0000 C CNN
	1    4450 3950
	-1   0    0    1   
$EndComp
Text GLabel 1400 1450 0    60   Input ~ 0
USB_DP
Text GLabel 950  4850 0    60   Input ~ 0
USB_DP
Text GLabel 950  4950 0    60   Input ~ 0
USB_DM
Text GLabel 1400 1350 0    60   Input ~ 0
USB_DM
$Comp
L VDD #PWR14
U 1 1 572FA2A9
P 7250 3250
F 0 "#PWR14" H 7250 3100 50  0001 C CNN
F 1 "VDD" H 7267 3423 50  0000 C CNN
F 2 "" H 7250 3250 50  0000 C CNN
F 3 "" H 7250 3250 50  0000 C CNN
	1    7250 3250
	1    0    0    -1  
$EndComp
$Comp
L GND #PWR15
U 1 1 572FA2D7
P 7250 3850
F 0 "#PWR15" H 7250 3600 50  0001 C CNN
F 1 "GND" H 7250 3700 50  0000 C CNN
F 2 "" H 7250 3850 50  0000 C CNN
F 3 "" H 7250 3850 50  0000 C CNN
	1    7250 3850
	1    0    0    -1  
$EndComp
$Comp
L C C4
U 1 1 572FA2F2
P 7250 3550
F 0 "C4" H 7365 3596 50  0000 L CNN
F 1 "100uF" H 7365 3505 50  0000 L CNN
F 2 "Capacitors_SMD:C_0603_HandSoldering" H 7288 3400 50  0001 C CNN
F 3 "" H 7250 3550 50  0000 C CNN
	1    7250 3550
	1    0    0    -1  
$EndComp
$Comp
L C C5
U 1 1 572FA45D
P 7700 3550
F 0 "C5" H 7815 3596 50  0000 L CNN
F 1 "100uF" H 7815 3505 50  0000 L CNN
F 2 "Capacitors_SMD:C_0603_HandSoldering" H 7738 3400 50  0001 C CNN
F 3 "" H 7700 3550 50  0000 C CNN
	1    7700 3550
	1    0    0    -1  
$EndComp
$Comp
L VDD #PWR7
U 1 1 572FA729
P 4400 6800
F 0 "#PWR7" H 4400 6650 50  0001 C CNN
F 1 "VDD" H 4418 6973 50  0000 C CNN
F 2 "" H 4400 6800 50  0000 C CNN
F 3 "" H 4400 6800 50  0000 C CNN
	1    4400 6800
	-1   0    0    1   
$EndComp
$Comp
L Q_PMOS_GSD Q1
U 1 1 573233FF
P 7250 1200
F 0 "Q1" H 7441 1246 50  0000 L CNN
F 1 "BAT_CHG" H 7441 1155 50  0000 L CNN
F 2 "TO_SOT_Packages_THT:TO-220_Neutral123_Vertical" H 7450 1300 50  0001 C CNN
F 3 "" H 7250 1200 50  0000 C CNN
	1    7250 1200
	1    0    0    -1  
$EndComp
$Comp
L C C6
U 1 1 57373E25
P 8150 3550
F 0 "C6" H 8265 3596 50  0000 L CNN
F 1 "100uF" H 8265 3505 50  0000 L CNN
F 2 "Capacitors_SMD:C_0603" H 8188 3400 50  0001 C CNN
F 3 "" H 8150 3550 50  0000 C CNN
	1    8150 3550
	1    0    0    -1  
$EndComp
$Comp
L Crystal Y1
U 1 1 5737423B
P 8700 5500
F 0 "Y1" V 8654 5631 50  0000 L CNN
F 1 "Crystal" V 8745 5631 50  0000 L CNN
F 2 "Crystals:Crystal_HC49-U_Vertical" H 8700 5500 50  0001 C CNN
F 3 "" H 8700 5500 50  0000 C CNN
	1    8700 5500
	0    1    1    0   
$EndComp
$Comp
L C C7
U 1 1 573747A3
P 9050 5250
F 0 "C7" H 9165 5296 50  0000 L CNN
F 1 "100uF" H 9165 5205 50  0000 L CNN
F 2 "Capacitors_SMD:C_0603_HandSoldering" H 9088 5100 50  0001 C CNN
F 3 "" H 9050 5250 50  0000 C CNN
	1    9050 5250
	0    -1   -1   0   
$EndComp
$Comp
L C C8
U 1 1 573748A3
P 9050 5750
F 0 "C8" H 9165 5796 50  0000 L CNN
F 1 "100uF" H 9165 5705 50  0000 L CNN
F 2 "Capacitors_SMD:C_0603_HandSoldering" H 9088 5600 50  0001 C CNN
F 3 "" H 9050 5750 50  0000 C CNN
	1    9050 5750
	0    -1   -1   0   
$EndComp
$Comp
L R R1
U 1 1 57376E9B
P 7100 2200
F 0 "R1" H 7170 2246 50  0000 L CNN
F 1 "R" H 7170 2155 50  0000 L CNN
F 2 "Resistors_ThroughHole:Resistor_Horizontal_RM15mm" V 7030 2200 50  0001 C CNN
F 3 "" H 7100 2200 50  0000 C CNN
	1    7100 2200
	1    0    0    -1  
$EndComp
$Comp
L R R2
U 1 1 57376F33
P 7100 2650
F 0 "R2" H 7170 2696 50  0000 L CNN
F 1 "R" H 7170 2605 50  0000 L CNN
F 2 "Resistors_ThroughHole:Resistor_Horizontal_RM15mm" V 7030 2650 50  0001 C CNN
F 3 "" H 7100 2650 50  0000 C CNN
	1    7100 2650
	1    0    0    -1  
$EndComp
$Comp
L GND #PWR23
U 1 1 573776DF
P 7100 2850
F 0 "#PWR23" H 7100 2600 50  0001 C CNN
F 1 "GND" H 7100 2700 50  0000 C CNN
F 2 "" H 7100 2850 50  0000 C CNN
F 3 "" H 7100 2850 50  0000 C CNN
	1    7100 2850
	1    0    0    -1  
$EndComp
Text GLabel 7300 2400 2    60   Input ~ 0
BAT_VOL
Text GLabel 1100 6050 0    60   Input ~ 0
BAT_VOL
$Comp
L R R3
U 1 1 573796EA
P 8200 1000
F 0 "R3" H 8270 1046 50  0000 L CNN
F 1 "R" H 8270 955 50  0000 L CNN
F 2 "Resistors_ThroughHole:Resistor_Horizontal_RM15mm" V 8130 1000 50  0001 C CNN
F 3 "" H 8200 1000 50  0000 C CNN
	1    8200 1000
	1    0    0    -1  
$EndComp
$Comp
L R R4
U 1 1 573796F0
P 8200 1450
F 0 "R4" H 8270 1496 50  0000 L CNN
F 1 "R" H 8270 1405 50  0000 L CNN
F 2 "Resistors_ThroughHole:Resistor_Horizontal_RM15mm" V 8130 1450 50  0001 C CNN
F 3 "" H 8200 1450 50  0000 C CNN
	1    8200 1450
	1    0    0    -1  
$EndComp
$Comp
L GND #PWR21
U 1 1 573796F6
P 8200 1650
F 0 "#PWR21" H 8200 1400 50  0001 C CNN
F 1 "GND" H 8200 1500 50  0000 C CNN
F 2 "" H 8200 1650 50  0000 C CNN
F 3 "" H 8200 1650 50  0000 C CNN
	1    8200 1650
	1    0    0    -1  
$EndComp
Text GLabel 8400 1200 2    60   Input ~ 0
SOL_VOL
Text GLabel 1100 5850 0    60   Input ~ 0
SOL_VOL
$Comp
L CONN_02X04 P2
U 1 1 573862F6
P 3550 2450
F 0 "P2" H 3550 2815 50  0000 C CNN
F 1 "CONN_02X04" H 3550 2724 50  0000 C CNN
F 2 "Pin_Headers:Pin_Header_Straight_2x04" H 3550 1250 50  0001 C CNN
F 3 "" H 3550 1250 50  0000 C CNN
	1    3550 2450
	1    0    0    -1  
$EndComp
$Comp
L GND #PWR3
U 1 1 5738665B
P 2950 2300
F 0 "#PWR3" H 2950 2050 50  0001 C CNN
F 1 "GND" H 2950 2150 50  0000 C CNN
F 2 "" H 2950 2300 50  0000 C CNN
F 3 "" H 2950 2300 50  0000 C CNN
	1    2950 2300
	0    1    1    0   
$EndComp
$Comp
L +3V3 #PWR6
U 1 1 57386773
P 4100 2300
F 0 "#PWR6" H 4100 2150 50  0001 C CNN
F 1 "+3V3" H 4100 2440 50  0000 C CNN
F 2 "" H 4100 2300 50  0000 C CNN
F 3 "" H 4100 2300 50  0000 C CNN
	1    4100 2300
	0    1    1    0   
$EndComp
Text GLabel 7800 5250 2    60   Input ~ 0
NRF_IRQ
Text GLabel 1100 5550 0    60   Input ~ 0
SPI_CLK
Text GLabel 1100 5350 0    60   Input ~ 0
SPI_MOSI
Text GLabel 1100 5450 0    60   Input ~ 0
SPI_MISO
Text GLabel 1100 5750 0    60   Input ~ 0
NRF_CE
Text GLabel 1100 5650 0    60   Input ~ 0
SPI_CSN
Text GLabel 4000 2600 2    60   Input ~ 0
NRF_IRQ
Text GLabel 3150 2500 0    60   Input ~ 0
SPI_CLK
Text GLabel 4000 2500 2    60   Input ~ 0
SPI_MOSI
Text GLabel 3150 2600 0    60   Input ~ 0
SPI_MISO
Text GLabel 3150 2400 0    60   Input ~ 0
NRF_CE
Text GLabel 4000 2400 2    60   Input ~ 0
SPI_CSN
$Comp
L GND #PWR18
U 1 1 573884C2
P 9350 5250
F 0 "#PWR18" H 9350 5000 50  0001 C CNN
F 1 "GND" H 9350 5100 50  0000 C CNN
F 2 "" H 9350 5250 50  0000 C CNN
F 3 "" H 9350 5250 50  0000 C CNN
	1    9350 5250
	0    -1   -1   0   
$EndComp
$Comp
L GND #PWR19
U 1 1 57388519
P 9350 5750
F 0 "#PWR19" H 9350 5500 50  0001 C CNN
F 1 "GND" H 9350 5600 50  0000 C CNN
F 2 "" H 9350 5750 50  0000 C CNN
F 3 "" H 9350 5750 50  0000 C CNN
	1    9350 5750
	0    -1   -1   0   
$EndComp
$Comp
L CONN_01X02 P3
U 1 1 5738A94C
P 8900 2300
F 0 "P3" H 8977 2341 50  0000 L CNN
F 1 "BATTERY_CHARGE" H 8977 2250 50  0000 L CNN
F 2 "Terminal_Blocks:TerminalBlock_Pheonix_MKDS1.5-2pol" H 8900 2300 50  0001 C CNN
F 3 "" H 8900 2300 50  0000 C CNN
	1    8900 2300
	1    0    0    -1  
$EndComp
$Comp
L CONN_01X02 P4
U 1 1 5738ACC0
P 9200 1150
F 0 "P4" H 9278 1191 50  0000 L CNN
F 1 "SOLAR" H 9278 1100 50  0000 L CNN
F 2 "Terminal_Blocks:TerminalBlock_Pheonix_MKDS1.5-2pol" H 9200 1150 50  0001 C CNN
F 3 "" H 9200 1150 50  0000 C CNN
	1    9200 1150
	1    0    0    -1  
$EndComp
$Comp
L +12VA #PWR16
U 1 1 5738AD1B
P 6550 1950
F 0 "#PWR16" H 6550 1800 50  0001 C CNN
F 1 "+12VA" H 6550 2090 50  0000 C CNN
F 2 "" H 6550 1950 50  0000 C CNN
F 3 "" H 6550 1950 50  0000 C CNN
	1    6550 1950
	0    -1   -1   0   
$EndComp
$Comp
L +24V #PWR20
U 1 1 5738ADEB
P 8200 700
F 0 "#PWR20" H 8200 550 50  0001 C CNN
F 1 "+24V" H 8215 873 50  0000 C CNN
F 2 "" H 8200 700 50  0000 C CNN
F 3 "" H 8200 700 50  0000 C CNN
	1    8200 700 
	1    0    0    -1  
$EndComp
$Comp
L GND #PWR17
U 1 1 5738B515
P 8650 2350
F 0 "#PWR17" H 8650 2100 50  0001 C CNN
F 1 "GND" H 8650 2200 50  0000 C CNN
F 2 "" H 8650 2350 50  0000 C CNN
F 3 "" H 8650 2350 50  0000 C CNN
	1    8650 2350
	0    1    1    0   
$EndComp
$Comp
L Q_PMOS_GSD Q2
U 1 1 5738B8F7
P 2600 3500
F 0 "Q2" H 2791 3546 50  0000 L CNN
F 1 "FET_LOAD" H 2791 3455 50  0000 L CNN
F 2 "TO_SOT_Packages_THT:TO-220_Neutral123_Vertical" H 2800 3600 50  0001 C CNN
F 3 "" H 2600 3500 50  0000 C CNN
	1    2600 3500
	1    0    0    -1  
$EndComp
$Comp
L ACS722 U4
U 1 1 5738C5E6
P 4750 3450
F 0 "U4" H 4750 3847 60  0000 C CNN
F 1 "ACS722" H 4750 3741 60  0000 C CNN
F 2 "Housings_SOIC:SOIC-8-1EP_3.9x4.9mm_Pitch1.27mm" H 4650 2300 60  0001 C CNN
F 3 "" H 4650 2300 60  0000 C CNN
	1    4750 3450
	1    0    0    -1  
$EndComp
$Comp
L +3V3 #PWR12
U 1 1 5738C8A9
P 5550 3250
F 0 "#PWR12" H 5550 3100 50  0001 C CNN
F 1 "+3V3" H 5550 3390 50  0000 C CNN
F 2 "" H 5550 3250 50  0000 C CNN
F 3 "" H 5550 3250 50  0000 C CNN
	1    5550 3250
	1    0    0    -1  
$EndComp
Text GLabel 5400 3400 2    60   Input ~ 0
BAT_CUR
$Comp
L GND #PWR13
U 1 1 5738D0D8
P 5700 3750
F 0 "#PWR13" H 5700 3500 50  0001 C CNN
F 1 "GND" H 5700 3600 50  0000 C CNN
F 2 "" H 5700 3750 50  0000 C CNN
F 3 "" H 5700 3750 50  0000 C CNN
	1    5700 3750
	1    0    0    -1  
$EndComp
Text GLabel 1100 5950 0    60   Input ~ 0
BAT_CUR
$Comp
L C C9
U 1 1 5738E00B
P 6000 3500
F 0 "C9" H 6115 3546 50  0000 L CNN
F 1 "100uF" H 6115 3455 50  0000 L CNN
F 2 "Capacitors_SMD:C_0603" H 6038 3350 50  0001 C CNN
F 3 "" H 6000 3500 50  0000 C CNN
	1    6000 3500
	1    0    0    -1  
$EndComp
$Comp
L CONN_01X02 P5
U 1 1 573907D5
P 3500 3500
F 0 "P5" H 3577 3541 50  0000 L CNN
F 1 "LOAD" H 3577 3450 50  0000 L CNN
F 2 "Terminal_Blocks:TerminalBlock_Pheonix_MKDS1.5-2pol" H 3500 3500 50  0001 C CNN
F 3 "" H 3500 3500 50  0000 C CNN
	1    3500 3500
	1    0    0    -1  
$EndComp
Text GLabel 7750 4550 2    60   Input ~ 0
CHARGE_PWM
Text GLabel 6900 1200 0    60   Input ~ 0
CHARGE_PWM
Text GLabel 7750 4650 2    60   Input ~ 0
LOAD_SWITCH
Text GLabel 2250 3500 0    60   Input ~ 0
LOAD_SWITCH
$Comp
L GND #PWR2
U 1 1 57393AC9
P 2700 3850
F 0 "#PWR2" H 2700 3600 50  0001 C CNN
F 1 "GND" H 2700 3700 50  0000 C CNN
F 2 "" H 2700 3850 50  0000 C CNN
F 3 "" H 2700 3850 50  0000 C CNN
	1    2700 3850
	1    0    0    -1  
$EndComp
$Comp
L +12VA #PWR1
U 1 1 57393E3F
P 2700 3200
F 0 "#PWR1" H 2700 3050 50  0001 C CNN
F 1 "+12VA" H 2700 3340 50  0000 C CNN
F 2 "" H 2700 3200 50  0000 C CNN
F 3 "" H 2700 3200 50  0000 C CNN
	1    2700 3200
	1    0    0    -1  
$EndComp
$Comp
L GND #PWR11
U 1 1 57395B0D
P 5050 1350
F 0 "#PWR11" H 5050 1100 50  0001 C CNN
F 1 "GND" H 5050 1200 50  0000 C CNN
F 2 "" H 5050 1350 50  0000 C CNN
F 3 "" H 5050 1350 50  0000 C CNN
	1    5050 1350
	0    -1   -1   0   
$EndComp
$Comp
L +12VA #PWR9
U 1 1 57395EA3
P 4600 1900
F 0 "#PWR9" H 4600 1750 50  0001 C CNN
F 1 "+12VA" H 4600 2040 50  0000 C CNN
F 2 "" H 4600 1900 50  0000 C CNN
F 3 "" H 4600 1900 50  0000 C CNN
	1    4600 1900
	-1   0    0    1   
$EndComp
$Comp
L CONN_01X02 P6
U 1 1 57396D8B
P 5150 700
F 0 "P6" H 5228 741 50  0000 L CNN
F 1 "CONN_01X02" H 5228 650 50  0000 L CNN
F 2 "Pin_Headers:Pin_Header_Straight_1x02" H 5150 700 50  0001 C CNN
F 3 "" H 5150 700 50  0000 C CNN
	1    5150 700 
	1    0    0    -1  
$EndComp
$Comp
L GND #PWR10
U 1 1 573973C2
P 4850 750
F 0 "#PWR10" H 4850 500 50  0001 C CNN
F 1 "GND" H 4850 600 50  0000 C CNN
F 2 "" H 4850 750 50  0000 C CNN
F 3 "" H 4850 750 50  0000 C CNN
	1    4850 750 
	0    1    1    0   
$EndComp
Text Label 2250 950  0    60   ~ 0
5V_IN
$Comp
L AP1117 U1
U 1 1 572F3A72
P 4600 1350
F 0 "U1" H 4600 1717 50  0000 C CNN
F 1 "AP1117" H 4600 1626 50  0000 C CNN
F 2 "TO_SOT_Packages_SMD:SOT-223" H 4600 1000 50  0001 C CNN
F 3 "" H 4700 1100 50  0000 C CNN
	1    4600 1350
	0    -1   -1   0   
$EndComp
$Comp
L F_Small F1
U 1 1 5738D281
P 8250 2250
F 0 "F1" H 8250 2435 50  0000 C CNN
F 1 "F_Small" H 8250 2344 50  0000 C CNN
F 2 "Fuse_Holders_and_Fuses:BladeFuse-Mini" H 8250 2250 50  0001 C CNN
F 3 "" H 8250 2250 50  0000 C CNN
	1    8250 2250
	1    0    0    -1  
$EndComp
$Comp
L Switch_SPDT_x2 SW1
U 1 1 5738E619
P 4300 750
F 0 "SW1" H 4300 1075 50  0000 C CNN
F 1 "Switch_SPDT_x2" H 4300 984 50  0000 C CNN
F 2 "Buttons_Switches_ThroughHole:SW_Micro_SPST" H 4300 750 50  0001 C CNN
F 3 "" H 4300 750 50  0000 C CNN
	1    4300 750 
	1    0    0    -1  
$EndComp
Wire Wire Line
	3000 1500 3000 1750
Wire Wire Line
	3300 1100 3550 1100
Wire Wire Line
	3550 1700 3550 1500
Wire Wire Line
	2500 1700 3550 1700
Wire Wire Line
	2250 1100 2700 1100
Wire Wire Line
	2700 1200 2500 1200
Wire Wire Line
	2500 1100 2500 1300
Connection ~ 2500 1100
Connection ~ 2500 1200
Wire Wire Line
	3000 1700 3000 1700
Wire Wire Line
	2500 1700 2500 1600
Wire Wire Line
	3300 1200 3350 1200
Wire Wire Line
	3350 1200 3350 1350
Connection ~ 3350 1700
Connection ~ 3550 1100
Connection ~ 3000 1700
Wire Wire Line
	4400 6550 4400 6800
Wire Wire Line
	4300 6650 4500 6650
Wire Wire Line
	4400 4150 4400 4000
Wire Wire Line
	4400 4000 4500 4000
Wire Wire Line
	4500 4000 4500 4150
Wire Wire Line
	4450 3950 4450 4000
Connection ~ 4450 4000
Wire Wire Line
	1250 4850 950  4850
Wire Wire Line
	3550 1050 3550 1200
Wire Wire Line
	3350 1650 3350 1700
Wire Wire Line
	1400 1450 1550 1450
Wire Wire Line
	950  4950 1200 4950
Wire Wire Line
	1400 1350 1550 1350
Wire Wire Line
	7250 3250 7250 3400
Wire Wire Line
	7250 3700 7250 3850
Wire Wire Line
	7700 3700 7700 3800
Wire Wire Line
	7250 3800 8150 3800
Connection ~ 7250 3800
Wire Wire Line
	7700 3400 7700 3350
Wire Wire Line
	7250 3350 8150 3350
Connection ~ 7250 3350
Wire Wire Line
	4300 6550 4300 6650
Connection ~ 4400 6650
Wire Wire Line
	4500 6650 4500 6550
Wire Wire Line
	8150 3800 8150 3700
Connection ~ 7700 3800
Wire Wire Line
	8150 3350 8150 3400
Connection ~ 7700 3350
Wire Wire Line
	7600 5550 8400 5550
Wire Wire Line
	8400 5550 8400 5750
Wire Wire Line
	8400 5750 8900 5750
Wire Wire Line
	8700 5750 8700 5650
Wire Wire Line
	7600 5450 8400 5450
Wire Wire Line
	8400 5450 8400 5250
Wire Wire Line
	8400 5250 8900 5250
Wire Wire Line
	8700 5250 8700 5350
Connection ~ 8700 5750
Connection ~ 8700 5250
Wire Wire Line
	7100 2800 7100 2850
Wire Wire Line
	7100 2350 7100 2500
Wire Wire Line
	7300 2400 7100 2400
Connection ~ 7100 2400
Wire Wire Line
	8200 1600 8200 1650
Wire Wire Line
	8200 1150 8200 1300
Wire Wire Line
	8400 1200 8200 1200
Connection ~ 8200 1200
Wire Wire Line
	3300 2300 2950 2300
Wire Wire Line
	3800 2300 4100 2300
Wire Wire Line
	3800 2400 4000 2400
Wire Wire Line
	3800 2500 4000 2500
Wire Wire Line
	3800 2600 4000 2600
Wire Wire Line
	3300 2600 3150 2600
Wire Wire Line
	3300 2500 3150 2500
Wire Wire Line
	3300 2400 3150 2400
Wire Wire Line
	9200 5750 9350 5750
Wire Wire Line
	9200 5250 9350 5250
Wire Wire Line
	1100 6050 1200 6050
Wire Wire Line
	1100 5650 1200 5650
Wire Wire Line
	1100 5550 1200 5550
Wire Wire Line
	1100 5450 1200 5450
Wire Wire Line
	1100 5350 1200 5350
Wire Wire Line
	7600 5250 7800 5250
Wire Wire Line
	1100 5750 1200 5750
Wire Wire Line
	1100 5850 1200 5850
Wire Wire Line
	6550 1950 8100 1950
Wire Wire Line
	8650 2350 8700 2350
Wire Wire Line
	4300 3300 4150 3300
Wire Wire Line
	4150 3300 4150 3400
Wire Wire Line
	4150 3400 4300 3400
Wire Wire Line
	4300 3500 4150 3500
Wire Wire Line
	4150 3500 4150 3600
Wire Wire Line
	4150 3600 4300 3600
Wire Wire Line
	5200 3400 5400 3400
Wire Wire Line
	5200 3600 5350 3600
Wire Wire Line
	5350 3500 5350 3700
Wire Wire Line
	1100 5950 1200 5950
Connection ~ 5350 3600
Wire Wire Line
	5200 3500 5350 3500
Wire Wire Line
	5200 3300 6000 3300
Wire Wire Line
	5350 3700 6000 3700
Wire Wire Line
	6000 3700 6000 3650
Wire Wire Line
	6000 3300 6000 3350
Wire Wire Line
	5700 3700 5700 3750
Connection ~ 5700 3700
Wire Wire Line
	5550 3250 5550 3300
Connection ~ 5550 3300
Wire Wire Line
	7350 750  7350 1000
Wire Wire Line
	8000 1250 8000 1250
Wire Wire Line
	7350 1600 7350 1400
Wire Wire Line
	7750 4550 7600 4550
Wire Wire Line
	7050 1200 6900 1200
Wire Wire Line
	7750 4650 7600 4650
Wire Wire Line
	2250 3500 2400 3500
Wire Wire Line
	2700 3700 2700 3850
Wire Wire Line
	2700 3200 2700 3300
Wire Wire Line
	3200 3250 3200 3450
Wire Wire Line
	3200 3250 2700 3250
Connection ~ 2700 3250
Wire Wire Line
	3200 3550 3200 3750
Wire Wire Line
	3200 3750 2700 3750
Connection ~ 2700 3750
Wire Wire Line
	3200 3550 3300 3550
Wire Wire Line
	3200 3450 3300 3450
Wire Wire Line
	4150 3350 3200 3350
Connection ~ 3200 3350
Connection ~ 4150 3350
Wire Wire Line
	4150 3550 3850 3550
Wire Wire Line
	3850 3550 3850 3700
Wire Wire Line
	3850 3700 3200 3700
Connection ~ 3200 3700
Connection ~ 4150 3550
Wire Wire Line
	4600 1900 4600 1650
Wire Wire Line
	4900 1350 5050 1350
Wire Wire Line
	2250 750  2250 1100
Wire Wire Line
	2250 750  4000 750 
Wire Wire Line
	4600 650  4950 650 
Wire Wire Line
	4600 850  4600 1050
Wire Wire Line
	4950 750  4850 750 
Wire Wire Line
	7350 750  8900 750 
Connection ~ 8200 750 
Wire Wire Line
	8900 750  8900 1100
Wire Wire Line
	8200 700  8200 850 
Wire Wire Line
	8900 1600 8900 1200
Connection ~ 8200 1600
Wire Wire Line
	8900 1200 9000 1200
Wire Wire Line
	7350 1600 8900 1600
Wire Wire Line
	8900 1100 9000 1100
Wire Wire Line
	8100 1950 8100 2250
Connection ~ 7100 1950
Wire Wire Line
	7100 1950 7100 2050
Wire Wire Line
	8100 2250 8150 2250
Wire Wire Line
	8350 2250 8700 2250
$EndSCHEMATC
